{
    "cardTemplateName": "KeyinOTP_designerX",
    "rawCardName": "KeyinOTP",
    "cardDescription": "KeyinOTP",
    "cardInfo": {
        "infoUrl": "{{$get._dma_param_internal_domain}}/resources/download/ims-permanent/20211008_16674736f3c049cda10efeb718b546a3.png",
        "createdBy": "designerX",
        "version": "1.0.1633678565596",
        "external": true,
        "externalData": {
            "width": 375,
            "height": 132,
            "artboard": {
                "width": 375,
                "height": 812
            }
        }
    },
    "props": [
        {
            "name": "OTPValue",
            "type": "text",
            "defaultValue": ""
        }
    ],
    "actions": [
        {
            "name": "onTimeout"
        },
        {
            "name": "onKeyFinish"
        }
    ],
    "cardAPI": [
        {
            "cardAPIName": "startCoutdown",
            "cardAPIDescription": "startCoutdown",
            "input": [
                {
                    "inputName": "timeMs"
                }
            ],
            "output": []
        },
        {
            "cardAPIName": "reCountAgain",
            "cardAPIDescription": "reCountAgain",
            "input": [],
            "output": []
        }
    ],
    "testSuite": [
        {
            "name": "Start Count Down",
            "sequence": [
                {
                    "cardAPIName": "startCoutdown",
                    "input": {
                        "timeMs": "6000"
                    }
                }
            ]
        },
        {
            "name": "Re Count Again",
            "sequence": [
                {
                    "cardAPIName": "reCountAgain",
                    "input": {}
                }
            ]
        }
    ],
    "styled": {
        "dynamicStyle": []
    }
}